*** Life<Cell> 13x11 ***

Generation = 0, Population = 55.
00-----000-
---00----0-
-00---0----
----0--0-0-
-00-00--0--
-00---0----
0------0--0
-00-000-00-
0000--00-00
--0-0-000-0
--000-0----
----0----0-
0-0------0-

Generation = 4, Population = 76.
-*011*0-0-1
1*01.1.0-*0
0-.--*1-0--
1*11.-1----
--01*1---0-
**-1-*-010-
-1*-1-1-1--
1*01.11**--
..0*.0.0--1
*--1*-.-.--
----*-*-.1*
0001.01-.-.
-0**01**1.-

Generation = 8, Population = 60.
-.-.-*-.-*.
1.**.*.-1.1
--.*.*-*11-
-*.-.-.*---
-1-.**.--*-
*.-.0.1..**
.*.1*-.1*--
.*0-.1**.**
.*1.***.-1-
*.-1.0*.*-*
***..-*-.**
..--.-.-.-*
--..-.****1

Generation = 12, Population = 58.
-*..**1.-..
-*..***0*.*
0.*.**1*..*
**.1*-..01-
*.0....-0.0
..-*-.*....
...**1...--
.*11.-.....
...**..*-.*
*.1-*-..*-.
*..*.-.-...
**-**-.*...
00*.-.***.1

Generation = 16, Population = 46.
-***..****.
*..*.*..*.*
*....**..**
.*.**-*.0.-
..-..*.1*.-
..1*-...*.*
...*.....0-
..-.***....
...*....-..
.*1*..*..-.
*....-.....
*.**.1.....
**..-.....-

Generation = 20, Population = 42.
-*********.
*.......**.
****.**....
.*...*..-.-
..1*..*.*..
.......*.**
.....***.11
..-..**....
.....**.-..
..-.*....-.
....*......
....***....
....1.....-

Generation = 24, Population = 30.
-*****.....
.......***.
..*****..*.
...*...*1.-
...........
.....*..*.*
.....*...11
..-**......
...*....-..
..1......-.
...*..*....
.....*.....
..........-

Generation = 28, Population = 18.
-.*...**.**
......*..**
***....***.
..........-
...........
...........
..........-
..-***.....
...*....-..
..-......-.
...........
...........
..........-

*** Life<Cell> 19x3 ***

Generation = 0, Population = 15.
--0
0--
0-0
---
0--
---
-0-
0-0
0--
-00
-0-
---
---
--0
---
---
--0
--0
---

Generation = 10, Population = 21.
**.
*.*
*-*
*-*
*.-
...
*..
..1
.-.
-.*
..*
-.-
-.*
-.*
-..
-.*
-1*
*.*
--*

Generation = 20, Population = 13.
...
...
.**
.0.
.**
...
...
..-
.-.
-..
.**
***
.**
1..
-..
...
...
...
...

*** Life<Cell> 6x16 ***

Generation = 0, Population = 40.
----0--00-0--0--
0----00-00-0---0
-00-0-0-0--0-0--
------0-----00--
0-0--000--0--000
-0000-00-0--0-0-

Generation = 1, Population = 50.
0--0---1-0--0-00
--0-01-011010-0-
-11--0--1-010100
00--0---0-0-11-0
-01--1--0--00-11
-11-10-----0-01-

Generation = 2, Population = 52.
-0---00*01--1--1
0-101---**1*10-0
---0010--01*-*1-
1100-0-0--1-*---
-1-00*0010------
0---*-0-0-0101--

Generation = 3, Population = 51.
---0-1-*1---*-0*
-0*1-1--..*.*-01
-1111*1----.-.*-
**-1---1-0*0*-0-
0*1-1.11*100-0--
----*010101--*1-

Generation = 4, Population = 50.
-0-1-*-.*100.--*
0-.*1--0...*.-1-
-**--**--0-.-.*-
..-*000*0-.1*110
-.*0*.--.---011-
0110*-*1*1--0**0

Generation = 5, Population = 43.
---*0.0.*---.--.
-0.**1--...*.0*-
-**11..0--1*0..-
.*0.111*1-.*.*-1
0..-..--.1--1-*1
1-*1*-.-**11-..1

Generation = 6, Population = 45.
-00*-.-..1-0.00.
01...*-0..**.1.1
0..**..1-0*.1..0
*.-.---**-...*1*
1..0..11.*-0-1.*
*-.-.0.1**-*-.**

Generation = 7, Population = 31.
---.0.-..-01.-1.
--....-1.....*.*
-...*..-11*.-..-
**-*1--..0.*.*-*
-*.-..**.*-1-*..
.1.1.-.-.*-.0.**

Generation = 8, Population = 34.
---.-.-..11*.--.
--....0-*..*..*.
0..**..-***.-..-
**-*-11*.-.*..-.
-*.-*....*-*1*.*
.**-.-.1*.1.-**.

Generation = 9, Population = 37.
---.-.0..*-*.-1.
0-....--*..*....
1****..-****-..-
**-*-*-*.-.*..-.
-..-**...*0*-*..
.**1.-.***-*-**.

Generation = 10, Population = 38.
0--.-.-...-..0-.
1-**..01*..**...
*..**..-**.*1..-
*.0.-*-..-....-.
1..0.*.*.*-*-**.
..***0..**1*-**.

Generation = 11, Population = 46.
100.-.0*..-.*-1.
--***.1-****.*..
*...***-****-..-
*.-.-*1..-.*.*1.
*..1.*...*0*-**.
..**.-*.**-*-**.

Generation = 12, Population = 42.
*--.0*-***1**0-.
--*.*.-1.....*..
.*.....-*...1**-
**-.-.-**-...*-.
.***.*.***-*-..*
..***-..**1*-**.

Generation = 13, Population = 39.
.00*-*-***-**-1.
1-.***1*..*.....
***....1*...*.*0
*.-.-.1..-...*-.
*.....*...0*1*..
.*..*-.*..-*-.*.

Generation = 14, Population = 40.
.1-*0*0***1*.--.
*1...*-...*.*.**
*.***..-*....**1
*.0.-.*..-....-.
**...***..1*-**.
.....0....-*-*..

Generation = 15, Population = 38.
**-.-*-*****.-1.
*-....-...*.*..*
*.****.1.....*.-
*.1.1.*..-..*.-*
**...*.*..**-**.
.....1....-*-**.

Generation = 16, Population = 46.
**0.0.-.****.0-.
*-**.*-*..*.***.
*.*.***-...****-
*.*.*..*.-.**.-.
**..**....**1..*
.....**...-*-**.

Generation = 17, Population = 33.
*.-.-.-.****.1-.
*1....1**.......
*.*....1..*...*1
*.*......-....1.
**.**.....*.-.*.
....***...-*0**.

Generation = 18, Population = 37.
**-.-.0.***..-1.
**....*....*..*.
*.*...***.....**
*.*......-...*-.
*****......*1.**
...***....-*-**.

Generation = 19, Population = 40.
**0.-.1*.**..1*.
..*..**...*..**.
*.*...**.....***
*......*.-..**1.
*....*.....**..*
.*...*....1*0***

Generation = 20, Population = 30.
.*-.-*-*.**..-*.
*.**.*..***.*...
.....*.*.......*
*......*.-.*..-.
**....*...*....*
..........*.1***

Generation = 21, Population = 31.
.*-.0.-...**.1..
.**..*.*..**....
.*..*..*.***....
**.....*.-....-.
**........*.**.*
...........*****

Generation = 22, Population = 24.
.*-.-.-...***-..
*******.*.......
.......*.*.*....
..*.....*0..*.-.
**.............*
...........*...*

Generation = 23, Population = 29.
**-*0*1....*.1..
**********..*...
....****.**.....
.*......*-*...-.
.*..............
................

Generation = 24, Population = 18.
*.0.1.-.*...*-..
*........*.**...
*.........**....
.....****0*...-.
................
................

Generation = 25, Population = 19.
.*-.-.-....**1..
*........*..*...
......**....*...
......***-**..-.
......****......
................

Generation = 26, Population = 17.
..0.-.-....***..
................
......*..**.*...
.....*...0**..-.
......*..**.....
.......**.......

Generation = 27, Population = 14.
..-.-.-.....*...
..........*..*..
.........*......
.....**.*1....-.
......**...*....
.......***......

Generation = 28, Population = 12.
..-.-.-.........
................
........***.....
.....**.*-*...-.
.....*....*.....
......***.......

Generation = 29, Population = 15.
..-.-.-.........
.........*......
.......**.*.....
.....****1**..-.
.....*..*.......
......**........

Generation = 30, Population = 10.
..-.-.-.........
........**......
...........*....
.....*...-**..-.
.....*....*.....
......**........

Generation = 31, Population = 9.
..-.-.-.........
................
.........*.*....
.........1**..-.
.....*....**....
......*.........

Generation = 32, Population = 5.
..-.-.-.........
................
.........*.*....
.........-..*.-.
.........*.*....
................

Generation = 33, Population = 2.
..-.-.-.........
................
................
.........-.**.-.
................
................

Generation = 34, Population = 0.
..-.-.-.........
................
................
.........-....-.
................
................

Generation = 35, Population = 0.
..-.-.-.........
................
................
.........-....-.
................
................

Generation = 36, Population = 0.
..-.-.-.........
................
................
.........-....-.
................
................

Generation = 37, Population = 0.
..-.-.-.........
................
................
.........-....-.
................
................

Generation = 38, Population = 0.
..-.-.-.........
................
................
.........-....-.
................
................

Generation = 39, Population = 0.
..-.-.-.........
................
................
.........-....-.
................
................

Generation = 40, Population = 0.
..-.-.-.........
................
................
.........-....-.
................
................

Generation = 41, Population = 0.
..-.-.-.........
................
................
.........-....-.
................
................

Generation = 42, Population = 0.
..-.-.-.........
................
................
.........-....-.
................
................

Generation = 43, Population = 0.
..-.-.-.........
................
................
.........-....-.
................
................

Generation = 44, Population = 0.
..-.-.-.........
................
................
.........-....-.
................
................

Generation = 45, Population = 0.
..-.-.-.........
................
................
.........-....-.
................
................

*** Life<Cell> 15x20 ***

Generation = 0, Population = 28.
0----0--0-----0-----
------------------0-
-------------0--0-0-
--------------------
-----0--------------
-------------0-----0
----0--------0------
-----0------0-------
--------------------
----------0---------
--0-0---------------
0--------00-0---0---
--0---------------0-
-----------0---0----
--0-----------------

Generation = 7, Population = 144.
-...-.1-----*----*--
-0*0010-0----.*-*0.1
-0---0--**-0**-.0-.-
0--11-----00.*-10-**
*-0*.*--*0--0---0-.-
1--00.--0-.-*.-.01*-
.*-0**1--1*10.--*-0*
11--000-.*1--1100---
-00-*--1--0-0-0-0*-0
*---0-.-1-.--1-.000-
--*011-0-01--0--*0-0
*--0.00-.*-0--1-1*.-
*-*0001010001-.-.-*0
00--*---**10-1*--*0-
.0100-1-1---0-10-0-0

Generation = 14, Population = 113.
.....**...-.....**..
1-*-*.-*.1*--..-...1
*--**.0...-0..-*1*..
*-1...--..*-..0*.*..
*.-*.*...*--.-*-1.*-
*--.-.1*.**1.***.1*0
*...*..***..-.***.-.
*.-...-0..*-.*.*.*.*
**...****..-.**0.*.*
*.--10.-.-....0....*
.1.....1*.*.......1-
.1-1..-1..-1...*...*
.-.*1.*..*.*.*.-....
.011*01*...**..1....
.***--*1*--*0..*-*.*

*** Life<Cell> 16x5 ***

Generation = 0, Population = 32.
--00-
000-0
-0000
-00-0
0----
000--
--0--
0--00
----0
0----
0----
0----
--00-
-00--
-0-0-
0----

Generation = 2, Population = 39.
1----
-**0*
-*---
0-01*
*1001
00--0
-----
0-0-0
0---*
*-001
0--00
-1---
---*1
1--10
-*1--
-0---

Generation = 4, Population = 40.
----1
1*.-.
0.1-1
--0.*
.*-*.
----*
-1*0-
-001*
0---*
*0*-*
*0-00
--1--
1-1*1
1--10
-**--
1---0

*** Life<Cell> 16x7 ***

Generation = 0, Population = 12.
-------
---0---
-------
---0-0-
-------
-------
------0
-------
-0-00--
-------
---00--
-----0-
-------
-------
0------
--0----

Generation = 21, Population = 38.
..1.**.
**0*..-
**..*..
-.**-..
***.-*.
*.0..-1
**.....
1**.*..
**.....
..*...*
..*....
...*..*
..-....
..*..-.
.**.*..
.**...-

Generation = 42, Population = 12.
.......
.......
.......
-..*...
..*.*..
..*.*..
...*...
.......
.......
.......
.......
.......
..***..
...***.
.......
......-

*** Life<Cell> 12x1 ***

Generation = 0, Population = 2.
-
-
-
-
-
-
-
0
0
-
-
-

Generation = 8, Population = 3.
1
-
*
*
.
-
.
.
.
.
-
-

Generation = 16, Population = 0.
-
-
.
.
.
-
.
.
.
.
-
-

Generation = 24, Population = 0.
-
-
.
.
.
-
.
.
.
.
-
-

Generation = 32, Population = 0.
-
-
.
.
.
-
.
.
.
.
-
-

*** Life<Cell> 14x9 ***

Generation = 0, Population = 29.
------0--
-----0---
----000--
---0-----
---------
-----0---
0--0--0--
----00--0
------0--
--0-0-0-0
------0-0
0------00
-0--000--
------00-

Generation = 7, Population = 62.
1--0*-*1-
-----10-*
-0*1.**1*
0-*-*.0.*
-*-...0-1
-**0....1
11.*11*1*
0.--....*
0-0-.0.--
---**-*-.
-111.**--
01..-..*0
-110.1-*-
-1-**-*-1

Generation = 14, Population = 48.
*-.1*0..-
-*.-*..-.
.1..*....
***...-..
0..*...-1
..*-*...-
-..**1...
*.*....**
*.10.-...
*.*..0*-.
01.*.*..*
.**.*....
-*1..1*..
..1**-**1

*** Life<Cell> 7x9 ***

Generation = 0, Population = 22.
0-000000-
-0-0----0
--00-----
--00-0--0
--00-----
------0--
00------0

Generation = 2, Population = 27.
01-*00--0
-00---1--
-0----00-
0---00-1-
--0011--1
--1101---
-*----1--

Generation = 4, Population = 34.
-1-*0-0--
---010*01
0*0110--1
00--0--*-
110*1*--1
-01.--0--
-.0--01--

Generation = 6, Population = 26.
*11.--*--
111--*.0-
-.-*1---*
*-*-0--.-
1--...0--
--..*--11
1**-1-11-

*** Life<Cell> 1x9 ***

Generation = 0, Population = 3.
----00--0

Generation = 1, Population = 5.
---01100-

Generation = 2, Population = 4.
--01---10

Generation = 3, Population = 7.
-01*1-0*1

Generation = 4, Population = 7.
01-**-1**

*** Life<Cell> 12x9 ***

Generation = 0, Population = 11.
---------
--0------
--0------
---------
--0------
-0---0--0
----0----
-0-------
---------
---------
--0------
0------0-

Generation = 4, Population = 37.
---------
*11--10-0
*-.-*-0--
-*-------
0-----1--
--0-011--
0-------0
10---0-1-
--0------
0*---0-01
*-1-0-0--
-1110--0-

Generation = 8, Population = 43.
-01---*--
.-.0**---
.-*1.0*-*
1**0.--1-
-0.---.--
1----*--.
------1-0
1*0-*0--0
-*00---1*
*.--*-*..
.-.-*--1*
-..*1*0-*

Generation = 12, Population = 36.
-..-1-.0-
...-..-1-
.-.*.1.**
...-.1-**
**.--..10
--**..-..
-.1---1**
*.*-..0.-
*.1.-1-**
**--.-.*.
.1.-.1...
-..**.*-.

*** Life<Cell> 2x1 ***

Generation = 0, Population = 1.
0
-

Generation = 4, Population = 1.
0
-

Generation = 8, Population = 1.
0
-

*** Life<Cell> 13x15 ***

Generation = 0, Population = 104.
0---0--0-0-00-0
00--00--00---0-
--0-000-00000--
-00-00---0-00-0
-000----000-00-
-0-000-00--0-00
00-000--000-000
--0-0-0-00---0-
---000000-00---
00--0----00--00
000-0--0--0--00
0-0----000000-0
0-000-0----0--0

Generation = 17, Population = 61.
.***.-****.....
*.....0.*..*.*.
*.*....*......-
**.........*...
.....--....*.*.
....**-....*-.*
.**1*........**
.*..**......*.*
....*0..**..*.*
.***.....***..-
.***.-.....*-1.
..**1..-.0.***.
..*-..-.....*-.

Generation = 34, Population = 39.
.**............
*..............
*..*..........-
*....**........
.*.***.**......
....**..*......
......*.*......
......***......
.....-***......
.......**....**
...*.1.*.*...**
...*.....*.....
...1..-.*....-.

*** Life<Cell> 20x16 ***

Generation = 0, Population = 75.
----0-----------
0---------0-----
0----0-----0---0
--000-0---0---0-
----------000---
-0---0----0-0--0
----0-0---0-0--0
----0----0------
--00-0--0-----0-
-0-0-0--0------0
--------------0-
-----0-0---0----
--------0-0-----
0----0-0-0---0-0
----0--------0--
---0---00-------
---0--0--0----0-
------00-----0--
0-----0000-0000-
-0----0-----0-0-

Generation = 2, Population = 150.
1-0-010----0---0
*--01-0-0-0-0-0-
*-110--0-0101--0
--*---0-----1--0
0---111-01-0-11-
--10--0001--01-*
---1*10-0--0-1-*
--10--100-001---
00-0-*-1------00
-0--0-1--100-0-0
--01-0----0-0-0-
00---0--00------
----0-0-0-0-010-
0-0-----10-0-*--
--00----1100--11
00---0----0----0
00---1*--0----0-
-0-101*0-0-10-10
0-0001-*0*--**-1
-0-00--01-0--1--

Generation = 4, Population = 144.
*----1--1-0-0--0
*-1-.1*-----*-01
*-1*0-10-*.0.1--
0-*-1--010--*---
--00*1.1------.1
11.0--*--111-.1*
--1..1*---1--.0*
1-.*111*0-**.010
*0---*-*1100--*-
0*--0----.**----
---.--0-----0100
-*--0---0--0---0
--1-01--00--*.*-
--*-1-11*---1.1-
------01-.-01-.1
-0-*1*0-------1-
--1--*.01-0--1*-
1*11--.0--0*0*1-
0--001*.**--..-*
-010-0*0-----**-

Generation = 6, Population = 154.
.1--1.---000--0-
*0*0*-*--1--*1*1
*-..0-1--..0*1-*
*0.0--1*---0*0--
-00*...*--*11-**
..**-1*--...-.-*
-01**1.010-*1.-.
.-*.-1..0-*..*1-
.-*-1.-.*-0*--*-
-*1----1*.*.0-0-
1-1.---11----10-
**-1--11*1-01-1*
0-*0*.-0----*..-
01.-.-1**0-11.*0
--1----11*--1**1
1-1.1.-*--*110*-
--.--.*0.-*00-.-
-..1--**1--*0.1-
*1**0.*..*-***-*
-*----.-110--**-

Generation = 8, Population = 138.
*.-0**10*-0*1--1
.-*-*-*11*11.*.1
.1..*----.*0.*-.
.-*-11-*--1*.---
00-*.*..-*.*--.*
.*..-1.1-...-.-*
1*1....-.--*..**
.0..***.01....-1
.0*--.-*.1*.-0.1
0..*1---*.*.-1-*
.-..-10**0-1-.*0
.*-.1-.-.*0-111.
00.*..1---0-...0
0..-.-..*-0....-
--.-1--*..1*.*.-
10..1*-*10**--.-
1-.*-**-*-.-*1.0
*...--.**-0***10
....*.*...1*.*-.
-*----****-01.*-

Generation = 10, Population = 131.
..--***-.-0.*0**
.1*-.-...*1*.*.*
.-..*0-0-*.*.*-*
*-.--11.-0-*.-0-
*0-..**.-..**-*.
..*.-.*1-.*.1.-*
.......-.--...**
.-****..--**.*11
.0.11.0..1..--.1
-....1***..*1.-.
.-..1*0**----.*0
*.-.11.-..0-*-1.
-0.*..11*101.**-
**.1*-...-0****-
--.**--.*.....*-
1*.*1.1..0.*11*-
-1.*-.*-.-.-.-**
....-*...0-...1-
...*......1..*1*
-.--11.****-.*.1

*** Life<Cell> 20x6 ***

Generation = 0, Population = 60.
0-000-
-0-0--
-00-0-
0-00--
0---0-
-00---
000-0-
-000-0
0-0000
0-0-0-
0-0--0
-00--0
---0--
0--000
-000--
00--00
-00---
------
-0000-
00--00

Generation = 7, Population = 52.
.-.***
1..-.*
-*-**.
*.0..-
*-11-1
--*.*-
.-..-*
*.--0*
.1...*
0.*..-
*---**
--*-*.
.00..*
0...0*
1*-*.*
-*-1.*
.-1***
---1--
---1.*
*-1-.1

Generation = 14, Population = 41.
.**.*.
-*.**.
*.-.*.
*.*..*
*..*.*
.0*..1
.1..*.
..-*.*
.....*
......
.0*...
*..-*.
.-1.*.
....-.
1...**
..-**.
....*.
--..*-
1*...*
.0-**.

Generation = 21, Population = 12.
......
......
*.....
*....*
*.....
.-...*
.**..*
..1**.
......
......
.-....
...-..
.-....
....-.
......
.*....
......
--...-
......
..-...

Generation = 28, Population = 18.
......
......
......
.***..
*.**..
*.*.**
*.....
*.....
*....*
.*..*.
.1*...
...-..
.-....
....-.
......
......
......
--...-
......
..-...

Generation = 35, Population = 0.
......
......
......
......
......
......
......
......
......
......
......
...-..
.-....
....-.
......
......
......
--...-
......
..-...

Generation = 42, Population = 0.
......
......
......
......
......
......
......
......
......
......
......
...-..
.-....
....-.
......
......
......
--...-
......
..-...
